# retention calculation works

    Code
      retention_rates
    Output
      # A tibble: 48 x 5
         cohort college returned total return_rate
          <dbl> <chr>      <int> <int>       <dbl>
       1   2017 CHASS         29    66        43.9
       2   2017 COA           29    61        47.5
       3   2017 COB           28    54        51.9
       4   2017 COE           29    62        46.8
       5   2017 COHS          29    58        50  
       6   2017 CSET          26    50        52  
       7   2017 GCO           28    49        57.1
       8   2017 UCOL          27    55        49.1
       9   2018 CHASS         26    53        49.1
      10   2018 COA           34    73        46.6
      # ... with 38 more rows
